[
  {
    "iterationIndex": 0,
    "results": [
      {
        "test": {
          "filename": "ControladorProductos\\00-Login-Setup.bru"
        },
        "request": {
          "method": "POST",
          "url": "http://localhost:5041/api/auth/login",
          "headers": {
            "content-type": "application/json"
          },
          "data": "{\n  \"usernameOrEmail\": \"admin@admin.com\",\n  \"password\": \"Admin123!\"\n}"
        },
        "response": {
          "status": 200,
          "statusText": "OK",
          "headers": {
            "content-type": "application/json; charset=utf-8",
            "date": "Sat, 21 Feb 2026 17:51:11 GMT",
            "server": "Kestrel",
            "transfer-encoding": "chunked"
          },
          "data": {
            "token": "eyJhbGciOiJIUzI1NiIsInR5cCI6IkpXVCJ9.eyJzdWIiOiIxIiwibmFtZSI6IiIsImVtYWlsIjoiYWRtaW5AYWRtaW4uY29tIiwiaHR0cDovL3NjaGVtYXMubWljcm9zb2Z0LmNvbS93cy8yMDA4LzA2L2lkZW50aXR5L2NsYWltcy9yb2xlIjoiQWRtaW4iLCJqdGkiOiI5MDVmZTcxYy1jMTlhLTQyOTEtOGQzZi1iZDZmMzhkNmIzY2MiLCJleHAiOjE3NzE2OTk4NzEsImlzcyI6IkpXVF9JU1NVRVIiLCJhdWQiOiJKV1RfQVVESUVOQ0UifQ.iDMvEplfYvcHuXMCkpQLLg3jaECxPRUHn0oe2J7GCa0"
          },
          "url": "http://localhost/api/auth/login",
          "responseTime": 69
        },
        "error": null,
        "status": "pass",
        "assertionResults": [],
        "testResults": [
          {
            "description": "Setup: Login como admin OK",
            "status": "pass",
            "uid": "ED33Um1QZ7vUhF6rlJwMI"
          }
        ],
        "preRequestTestResults": [],
        "postResponseTestResults": [],
        "shouldStopRunnerExecution": false,
        "runDuration": 0.2692402,
        "name": "00-Login-Setup",
        "path": "ControladorProductos\\00-Login-Setup",
        "iterationIndex": 0
      },
      {
        "test": {
          "filename": "ControladorProductos\\01-GetAll-Productos.bru"
        },
        "request": {
          "method": "GET",
          "url": "http://localhost:5041/api/products",
          "headers": {
            "content-type": null
          }
        },
        "response": {
          "status": 200,
          "statusText": "OK",
          "headers": {
            "content-type": "application/json; charset=utf-8",
            "date": "Sat, 21 Feb 2026 17:51:11 GMT",
            "server": "Kestrel",
            "transfer-encoding": "chunked"
          },
          "data": {
            "content": [
              {
                "id": "PRD000000001",
                "name": "Funko Pop Iron Man",
                "price": 15.99,
                "stock": 50,
                "category": "Figuras",
                "description": "Figura Funko Pop de Iron Man de Marvel.",
                "comments": [],
                "images": [
                  "ironman_funko.jpg"
                ]
              },
              {
                "id": "PRD000000002",
                "name": "Spider-Man Comic #1",
                "price": 9.99,
                "stock": 20,
                "category": "Comics",
                "description": "Primer número del comic de Spider-Man.",
                "comments": [],
                "images": [
                  "spiderman_comic.jpg"
                ]
              },
              {
                "id": "PRD000000003",
                "name": "Captain America T-Shirt",
                "price": 19.99,
                "stock": 30,
                "category": "Ropa",
                "description": "Camiseta de algodón con el escudo del Capitán América.",
                "comments": [],
                "images": [
                  "cap_tshirt.jpg"
                ]
              },
              {
                "id": "PRD000000004",
                "name": "Funko Pop Batman",
                "price": 14.99,
                "stock": 40,
                "category": "Figuras",
                "description": "Figura Funko Pop de Batman de DC.",
                "comments": [],
                "images": [
                  "batman_funko.jpg"
                ]
              },
              {
                "id": "PRD000000005",
                "name": "Funko Pop Joker",
                "price": 16.5,
                "stock": 15,
                "category": "Figuras",
                "description": "Figura Funko Pop del Joker de DC Comics.",
                "comments": [],
                "images": [
                  "joker_funko.jpg"
                ]
              },
              {
                "id": "PRD000000006",
                "name": "Funko Pop Hulk",
                "price": 18,
                "stock": 25,
                "category": "Figuras",
                "description": "Figura Funko Pop de Hulk de Marvel.",
                "comments": [],
                "images": [
                  "hulk_funko.jpg"
                ]
              },
              {
                "id": "PRD000000007",
                "name": "Batman Comic #50",
                "price": 7.5,
                "stock": 60,
                "category": "Comics",
                "description": "Edición especial del comic de Batman.",
                "comments": [],
                "images": [
                  "batman_50.jpg"
                ]
              },
              {
                "id": "PRD000000008",
                "name": "X-Men Comic #10",
                "price": 8.25,
                "stock": 12,
                "category": "Comics",
                "description": "Comic de los X-Men, número 10.",
                "comments": [],
                "images": [
                  "xmen_10.jpg"
                ]
              },
              {
                "id": "PRD000000009",
                "name": "Watchmen",
                "price": 25,
                "stock": 10,
                "category": "Comics",
                "description": "La aclamada novela gráfica Watchmen.",
                "comments": [],
                "images": [
                  "watchmen.jpg"
                ]
              },
              {
                "id": "PRD000000010",
                "name": "Black Widow Hoodie",
                "price": 35.99,
                "stock": 18,
                "category": "Ropa",
                "description": "Sudadera de la Viuda Negra.",
                "comments": [],
                "images": [
                  "widow_hoodie.jpg"
                ]
              }
            ],
            "totalPages": 2,
            "totalElements": 13,
            "pageSize": 10,
            "pageNumber": 0,
            "totalPageElements": 10,
            "sortBy": "id",
            "direction": "asc",
            "empty": false,
            "first": true,
            "last": false
          },
          "url": "http://localhost/api/products",
          "responseTime": 89
        },
        "error": null,
        "status": "pass",
        "assertionResults": [],
        "testResults": [
          {
            "description": "GET todos los productos devuelve 200",
            "status": "pass",
            "uid": "FeEEa1QSOT9P0hfB7WeB_"
          },
          {
            "description": "Respuesta contiene campo content",
            "status": "pass",
            "uid": "Z6rgwx0kU0cmjJ5ElM8Ru"
          },
          {
            "description": "Respuesta contiene paginacion",
            "status": "pass",
            "uid": "bh969r60iUuZt573QRqMZ"
          }
        ],
        "preRequestTestResults": [],
        "postResponseTestResults": [],
        "shouldStopRunnerExecution": false,
        "runDuration": 0.2129112,
        "name": "01-GetAll-Productos",
        "path": "ControladorProductos\\01-GetAll-Productos",
        "iterationIndex": 0
      },
      {
        "test": {
          "filename": "ControladorProductos\\02-GetAll-FiltroNombre.bru"
        },
        "request": {
          "method": "GET",
          "url": "http://localhost:5041/api/products",
          "headers": {
            "content-type": null
          }
        },
        "response": {
          "status": 200,
          "statusText": "OK",
          "headers": {
            "content-type": "application/json; charset=utf-8",
            "date": "Sat, 21 Feb 2026 17:51:12 GMT",
            "server": "Kestrel",
            "transfer-encoding": "chunked"
          },
          "data": {
            "content": [
              {
                "id": "PRD000000001",
                "name": "Funko Pop Iron Man",
                "price": 15.99,
                "stock": 50,
                "category": "Figuras",
                "description": "Figura Funko Pop de Iron Man de Marvel.",
                "comments": [],
                "images": [
                  "ironman_funko.jpg"
                ]
              },
              {
                "id": "PRD000000002",
                "name": "Spider-Man Comic #1",
                "price": 9.99,
                "stock": 20,
                "category": "Comics",
                "description": "Primer número del comic de Spider-Man.",
                "comments": [],
                "images": [
                  "spiderman_comic.jpg"
                ]
              },
              {
                "id": "PRD000000003",
                "name": "Captain America T-Shirt",
                "price": 19.99,
                "stock": 30,
                "category": "Ropa",
                "description": "Camiseta de algodón con el escudo del Capitán América.",
                "comments": [],
                "images": [
                  "cap_tshirt.jpg"
                ]
              },
              {
                "id": "PRD000000004",
                "name": "Funko Pop Batman",
                "price": 14.99,
                "stock": 40,
                "category": "Figuras",
                "description": "Figura Funko Pop de Batman de DC.",
                "comments": [],
                "images": [
                  "batman_funko.jpg"
                ]
              },
              {
                "id": "PRD000000005",
                "name": "Funko Pop Joker",
                "price": 16.5,
                "stock": 15,
                "category": "Figuras",
                "description": "Figura Funko Pop del Joker de DC Comics.",
                "comments": [],
                "images": [
                  "joker_funko.jpg"
                ]
              },
              {
                "id": "PRD000000006",
                "name": "Funko Pop Hulk",
                "price": 18,
                "stock": 25,
                "category": "Figuras",
                "description": "Figura Funko Pop de Hulk de Marvel.",
                "comments": [],
                "images": [
                  "hulk_funko.jpg"
                ]
              },
              {
                "id": "PRD000000007",
                "name": "Batman Comic #50",
                "price": 7.5,
                "stock": 60,
                "category": "Comics",
                "description": "Edición especial del comic de Batman.",
                "comments": [],
                "images": [
                  "batman_50.jpg"
                ]
              },
              {
                "id": "PRD000000008",
                "name": "X-Men Comic #10",
                "price": 8.25,
                "stock": 12,
                "category": "Comics",
                "description": "Comic de los X-Men, número 10.",
                "comments": [],
                "images": [
                  "xmen_10.jpg"
                ]
              },
              {
                "id": "PRD000000009",
                "name": "Watchmen",
                "price": 25,
                "stock": 10,
                "category": "Comics",
                "description": "La aclamada novela gráfica Watchmen.",
                "comments": [],
                "images": [
                  "watchmen.jpg"
                ]
              },
              {
                "id": "PRD000000010",
                "name": "Black Widow Hoodie",
                "price": 35.99,
                "stock": 18,
                "category": "Ropa",
                "description": "Sudadera de la Viuda Negra.",
                "comments": [],
                "images": [
                  "widow_hoodie.jpg"
                ]
              }
            ],
            "totalPages": 2,
            "totalElements": 13,
            "pageSize": 10,
            "pageNumber": 0,
            "totalPageElements": 10,
            "sortBy": "id",
            "direction": "asc",
            "empty": false,
            "first": true,
            "last": false
          },
          "url": "http://localhost/api/products",
          "responseTime": 8
        },
        "error": null,
        "status": "pass",
        "assertionResults": [],
        "testResults": [
          {
            "description": "GET con filtro de nombre devuelve 200",
            "status": "pass",
            "uid": "TmhG_INAhSoKY9U4XLtZR"
          },
          {
            "description": "Respuesta es un PageResponseDto",
            "status": "pass",
            "uid": "KAu0OrKRmzbNDLTfv3Tiw"
          }
        ],
        "preRequestTestResults": [],
        "postResponseTestResults": [],
        "shouldStopRunnerExecution": false,
        "runDuration": 0.0535374,
        "name": "02-GetAll-FiltroNombre",
        "path": "ControladorProductos\\02-GetAll-FiltroNombre",
        "iterationIndex": 0
      },
      {
        "test": {
          "filename": "ControladorProductos\\03-GetById-OK.bru"
        },
        "request": {
          "method": "GET",
          "url": "http://localhost:5041/api/products/PRD000000001",
          "headers": {
            "content-type": null
          }
        },
        "response": {
          "status": 404,
          "statusText": "Not Found",
          "headers": {
            "content-length": "0",
            "date": "Sat, 21 Feb 2026 17:51:12 GMT",
            "server": "Kestrel"
          },
          "data": "",
          "url": "http://localhost/api/products/PRD000000001",
          "responseTime": 2
        },
        "error": null,
        "status": "pass",
        "assertionResults": [],
        "testResults": [
          {
            "description": "GET producto por ID devuelve 200 o 404",
            "status": "pass",
            "uid": "HTOhNyTflWsYJd_N8CfWf"
          },
          {
            "description": "Si existe: tiene id y name",
            "status": "pass",
            "uid": "pM7PgTjJKQKc5nQs_p2zp"
          }
        ],
        "preRequestTestResults": [],
        "postResponseTestResults": [],
        "shouldStopRunnerExecution": false,
        "runDuration": 0.1345036,
        "name": "03-GetById-OK",
        "path": "ControladorProductos\\03-GetById-OK",
        "iterationIndex": 0
      },
      {
        "test": {
          "filename": "ControladorProductos\\04-GetById-NotFound.bru"
        },
        "request": {
          "method": "GET",
          "url": "http://localhost:5041/api/products/99999999",
          "headers": {
            "content-type": null
          }
        },
        "response": {
          "status": 404,
          "statusText": "Not Found",
          "headers": {
            "content-type": "application/json; charset=utf-8",
            "date": "Sat, 21 Feb 2026 17:51:12 GMT",
            "server": "Kestrel",
            "transfer-encoding": "chunked"
          },
          "data": {
            "message": "No se encontró el Product con id: 99999999."
          },
          "url": "http://localhost/api/products/99999999",
          "responseTime": 36
        },
        "error": null,
        "status": "pass",
        "assertionResults": [],
        "testResults": [
          {
            "description": "GET producto inexistente devuelve 404",
            "status": "pass",
            "uid": "8rpKj0LROvlMwGJlFQkgN"
          },
          {
            "description": "Respuesta contiene mensaje de error",
            "status": "pass",
            "uid": "XsT8RvEALPsaXf6ny0X4i"
          }
        ],
        "preRequestTestResults": [],
        "postResponseTestResults": [],
        "shouldStopRunnerExecution": false,
        "runDuration": 0.0911721,
        "name": "04-GetById-NotFound",
        "path": "ControladorProductos\\04-GetById-NotFound",
        "iterationIndex": 0
      },
      {
        "test": {
          "filename": "ControladorProductos\\05-Post-Producto-SinAuth.bru"
        },
        "request": {
          "method": "POST",
          "url": "http://localhost:5041/api/products",
          "headers": {
            "content-type": null
          }
        },
        "response": {
          "status": 401,
          "statusText": "Unauthorized",
          "headers": {
            "content-length": "0",
            "date": "Sat, 21 Feb 2026 17:51:12 GMT",
            "server": "Kestrel",
            "www-authenticate": "********"
          },
          "data": "",
          "url": "http://localhost/api/products",
          "responseTime": 9
        },
        "error": null,
        "status": "pass",
        "assertionResults": [],
        "testResults": [
          {
            "description": "POST sin autenticación devuelve 401",
            "status": "pass",
            "uid": "71DjE6v1iqTjJLYL_7fh7"
          }
        ],
        "preRequestTestResults": [],
        "postResponseTestResults": [],
        "shouldStopRunnerExecution": false,
        "runDuration": 0.0656921,
        "name": "05-Post-Producto-SinAuth",
        "path": "ControladorProductos\\05-Post-Producto-SinAuth",
        "iterationIndex": 0
      },
      {
        "test": {
          "filename": "ControladorProductos\\06-Post-Producto-ConManagerToken.bru"
        },
        "request": {
          "method": "POST",
          "url": "http://localhost:5041/api/products",
          "headers": {
            "Authorization": "Bearer ********",
            "content-type": "multipart/form-data; boundary=--------------------------684f69616b5b61f873db1c94"
          },
          "data": {
            "_overheadLength": 0,
            "_valueLength": 0,
            "_valuesToMeasure": [],
            "writable": false,
            "readable": true,
            "dataSize": 0,
            "maxDataSize": 2097152,
            "pauseStreams": true,
            "_released": true,
            "_streams": [],
            "_currentStream": null,
            "_insideLoop": false,
            "_pendingNext": false,
            "_boundary": "--------------------------684f69616b5b61f873db1c94",
            "_events": {},
            "_eventsCount": 3
          }
        },
        "response": {
          "status": 403,
          "statusText": "Forbidden",
          "headers": {
            "content-length": "0",
            "date": "Sat, 21 Feb 2026 17:51:12 GMT",
            "server": "Kestrel"
          },
          "data": "",
          "url": "http://localhost/api/products",
          "responseTime": 49
        },
        "error": null,
        "status": "pass",
        "assertionResults": [],
        "testResults": [
          {
            "description": "POST producto con token devuelve 201 o 403",
            "status": "pass",
            "uid": "S6L412aIJnvMDATWZRpoo"
          }
        ],
        "preRequestTestResults": [],
        "postResponseTestResults": [],
        "shouldStopRunnerExecution": false,
        "runDuration": 0.1777507,
        "name": "06-Post-Producto-ConAdminToken",
        "path": "ControladorProductos\\06-Post-Producto-ConManagerToken",
        "iterationIndex": 0
      },
      {
        "test": {
          "filename": "ControladorProductos\\07-Put-Producto-OK.bru"
        },
        "request": {
          "method": "PUT",
          "url": "http://localhost:5041/api/products/99999999",
          "headers": {
            "Authorization": "Bearer ********",
            "content-type": "multipart/form-data; boundary=--------------------------cf4cc852a6db8b5b89e884d3"
          },
          "data": {
            "_overheadLength": 0,
            "_valueLength": 0,
            "_valuesToMeasure": [],
            "writable": false,
            "readable": true,
            "dataSize": 0,
            "maxDataSize": 2097152,
            "pauseStreams": true,
            "_released": true,
            "_streams": [],
            "_currentStream": null,
            "_insideLoop": false,
            "_pendingNext": false,
            "_boundary": "--------------------------cf4cc852a6db8b5b89e884d3",
            "_events": {},
            "_eventsCount": 3
          }
        },
        "response": {
          "status": 403,
          "statusText": "Forbidden",
          "headers": {
            "content-length": "0",
            "date": "Sat, 21 Feb 2026 17:51:12 GMT",
            "server": "Kestrel"
          },
          "data": "",
          "url": "http://localhost/api/products/99999999",
          "responseTime": 4
        },
        "error": null,
        "status": "pass",
        "assertionResults": [],
        "testResults": [
          {
            "description": "PUT producto devuelve 200, 403 o 404",
            "status": "pass",
            "uid": "nyg7qNVGrxjhl5TxEC38R"
          }
        ],
        "preRequestTestResults": [],
        "postResponseTestResults": [],
        "shouldStopRunnerExecution": false,
        "runDuration": 0.116234,
        "name": "07-Put-Producto-OK",
        "path": "ControladorProductos\\07-Put-Producto-OK",
        "iterationIndex": 0
      },
      {
        "test": {
          "filename": "ControladorProductos\\08-Put-Producto-SinAuth.bru"
        },
        "request": {
          "method": "PUT",
          "url": "http://localhost:5041/api/products/99999999",
          "headers": {
            "content-type": null
          }
        },
        "response": {
          "status": 401,
          "statusText": "Unauthorized",
          "headers": {
            "content-length": "0",
            "date": "Sat, 21 Feb 2026 17:51:12 GMT",
            "server": "Kestrel",
            "www-authenticate": "********"
          },
          "data": "",
          "url": "http://localhost/api/products/99999999",
          "responseTime": 3
        },
        "error": null,
        "status": "pass",
        "assertionResults": [],
        "testResults": [
          {
            "description": "PUT sin autenticacion devuelve 401",
            "status": "pass",
            "uid": "BdJ9zTqCZ6wM2BF151Sik"
          }
        ],
        "preRequestTestResults": [],
        "postResponseTestResults": [],
        "shouldStopRunnerExecution": false,
        "runDuration": 0.1339006,
        "name": "08-Put-Producto-SinAuth",
        "path": "ControladorProductos\\08-Put-Producto-SinAuth",
        "iterationIndex": 0
      },
      {
        "test": {
          "filename": "ControladorProductos\\09-Delete-Producto-SinAuth.bru"
        },
        "request": {
          "method": "DELETE",
          "url": "http://localhost:5041/api/products/99999999",
          "headers": {
            "content-type": null
          }
        },
        "response": {
          "status": 401,
          "statusText": "Unauthorized",
          "headers": {
            "content-length": "0",
            "date": "Sat, 21 Feb 2026 17:51:12 GMT",
            "server": "Kestrel",
            "www-authenticate": "********"
          },
          "data": "",
          "url": "http://localhost/api/products/99999999",
          "responseTime": 3
        },
        "error": null,
        "status": "pass",
        "assertionResults": [],
        "testResults": [
          {
            "description": "DELETE sin autenticacion devuelve 401",
            "status": "pass",
            "uid": "b5LRx-_nbNiMJLqeP_oVT"
          }
        ],
        "preRequestTestResults": [],
        "postResponseTestResults": [],
        "shouldStopRunnerExecution": false,
        "runDuration": 0.1253718,
        "name": "09-Delete-Producto-SinAuth",
        "path": "ControladorProductos\\09-Delete-Producto-SinAuth",
        "iterationIndex": 0
      },
      {
        "test": {
          "filename": "ControladorProductos\\10-Delete-Producto-OK.bru"
        },
        "request": {
          "method": "DELETE",
          "url": "http://localhost:5041/api/products/99999999",
          "headers": {
            "Authorization": "Bearer ********",
            "content-type": null
          }
        },
        "response": {
          "status": 404,
          "statusText": "Not Found",
          "headers": {
            "content-type": "application/json; charset=utf-8",
            "date": "Sat, 21 Feb 2026 17:51:13 GMT",
            "server": "Kestrel",
            "transfer-encoding": "chunked"
          },
          "data": {
            "message": "No se encontró el Product con id: 99999999."
          },
          "url": "http://localhost/api/products/99999999",
          "responseTime": 16
        },
        "error": null,
        "status": "pass",
        "assertionResults": [],
        "testResults": [
          {
            "description": "DELETE producto con token devuelve 200, 403 o 404",
            "status": "pass",
            "uid": "lP7KuC-20BGa_KrPv0zau"
          },
          {
            "description": "Si OK, respuesta contiene el producto eliminado",
            "status": "pass",
            "uid": "qvaZR9buHwmRx1zpFVY7K"
          }
        ],
        "preRequestTestResults": [],
        "postResponseTestResults": [],
        "shouldStopRunnerExecution": false,
        "runDuration": 0.1233764,
        "name": "10-Delete-Producto-OK",
        "path": "ControladorProductos\\10-Delete-Producto-OK",
        "iterationIndex": 0
      }
    ],
    "summary": {
      "totalRequests": 11,
      "passedRequests": 11,
      "failedRequests": 0,
      "errorRequests": 0,
      "skippedRequests": 0,
      "totalAssertions": 0,
      "passedAssertions": 0,
      "failedAssertions": 0,
      "totalTests": 17,
      "passedTests": 17,
      "failedTests": 0,
      "totalPreRequestTests": 0,
      "passedPreRequestTests": 0,
      "failedPreRequestTests": 0,
      "totalPostResponseTests": 0,
      "passedPostResponseTests": 0,
      "failedPostResponseTests": 0
    }
  }
]